,Instance type,Default vCPUs,Default CPU cores,Default threads per core,Valid CPU cores,Valid threads per core
0,dl1.24xlarge,96,48,2,"2, 4, 6, 8, 10, 12, 14, 16, 18, 20, 22, 24, 26, 28, 30, 32, 34, 36, 38, 40, 42, 44, 46, 48","1, 2"
1,f1.2xlarge,8,4,2,"1, 2, 3, 4","1, 2"
2,f1.4xlarge,16,8,2,"1, 2, 3, 4, 5, 6, 7, 8","1, 2"
3,f1.16xlarge,64,32,2,"2, 4, 6, 8, 10, 12, 14, 16, 18, 20, 22, 24, 26, 28, 30, 32","1, 2"
4,g2.2xlarge,8,4,2,"1, 2, 3, 4","1, 2"
5,g2.8xlarge,32,16,2,"2, 4, 6, 8, 10, 12, 14, 16","1, 2"
6,g3.4xlarge,16,8,2,"1, 2, 3, 4, 5, 6, 7, 8","1, 2"
7,g3.8xlarge,32,16,2,"1, 2, 3, 4, 5, 6, 7, 8, 9, 10, 11, 12, 13, 14, 15, 16","1, 2"
8,g3.16xlarge,64,32,2,"2, 4, 6, 8, 10, 12, 14, 16, 18, 20, 22, 24, 26, 28, 30, 32","1, 2"
9,g4ad.xlarge,4,2,2,2,"1, 2"
10,g4ad.2xlarge,8,4,2,"2, 4","1, 2"
11,g4ad.4xlarge,16,8,2,"2, 4, 8","1, 2"
12,g4ad.8xlarge,32,16,2,"2, 4, 8, 16","1, 2"
13,g4ad.16xlarge,64,32,2,"2, 4, 8, 16, 32","1, 2"
14,g4dn.xlarge,4,2,2,2,"1, 2"
15,g4dn.2xlarge,8,4,2,"2, 4","1, 2"
16,g4dn.4xlarge,16,8,2,"2, 4, 6, 8","1, 2"
17,g4dn.8xlarge,32,16,2,"2, 4, 6, 8, 10, 12, 14, 16","1, 2"
18,g4dn.12xlarge,48,24,2,"2, 4, 6, 8, 10, 12, 14, 16, 18, 20, 22, 24","1, 2"
19,g4dn.16xlarge,64,32,2,"2, 4, 6, 8, 10, 12, 14, 16, 18, 20, 22, 24, 26, 28, 30, 32","1, 2"
20,g5g.xlarge,4,4,1,"1, 2, 3, 4",1
21,g5g.2xlarge,8,8,1,"1, 2, 3, 4, 5, 6, 7, 8",1
22,g5g.4xlarge,16,16,1,"1, 2, 3, 4, 5, 6, 7, 8, 9, 10, 11, 12, 13, 14, 15, 16",1
23,g5g.8xlarge,32,32,1,"1, 2, 3, 4, 5, 6, 7, 8, 9, 10, 11, 12, 13, 14, 15, 16, 17, 18, 19, 20, 21, 22, 23, 24, 25, 26, 27, 28, 29, 30, 31, 32",1
24,g5g.16xlarge,64,64,1,"1, 2, 3, 4, 5, 6, 7, 8, 9, 10, 11, 12, 13, 14, 15, 16, 17, 18, 19, 20, 21, 22, 23, 24, 25, 26, 27, 28, 29, 30, 31, 32, 33, 34, 35, 36, 37, 38, 39, 40, 41, 42, 43, 44, 45, 46, 47, 48, 49, 50, 51, 52, 53, 54, 55, 56, 57, 58, 59, 60, 61, 62, 63, 64",1
25,inf1.xlarge,4,2,2,2,"1, 2"
26,inf1.2xlarge,8,4,2,"2, 4","1, 2"
27,inf1.6xlarge,24,12,2,"2, 4, 6, 8, 10, 12","1, 2"
28,inf1.24xlarge,96,48,2,"2, 4, 6, 8, 10, 12, 14, 16, 18, 20, 22, 24, 26, 28, 30, 32, 34, 36, 38, 40, 42, 44, 46, 48","1, 2"
29,inf2.xlarge,4,2,2,"1, 2","1, 2"
30,inf2.8xlarge,32,16,2,"1, 2, 3, 4, 5, 6, 7, 8, 16","1, 2"
31,inf2.24xlarge,96,48,2,"2, 4, 6, 8, 10, 12, 14, 16, 32, 48","1, 2"
32,inf2.48xlarge,192,96,2,"4, 8, 12, 16, 20, 24, 28, 32, 64, 96","1, 2"
33,p2.xlarge,4,2,2,"1, 2","1, 2"
34,p2.8xlarge,32,16,2,"1, 2, 3, 4, 5, 6, 7, 8, 9, 10, 11, 12, 13, 14, 15, 16","1, 2"
35,p2.16xlarge,64,32,2,"2, 4, 6, 8, 10, 12, 14, 16, 18, 20, 22, 24, 26, 28, 30, 32","1, 2"
36,p3.2xlarge,8,4,2,"1, 2, 3, 4","1, 2"
37,p3.8xlarge,32,16,2,"1, 2, 3, 4, 5, 6, 7, 8, 9, 10, 11, 12, 13, 14, 15, 16","1, 2"
38,p3.16xlarge,64,32,2,"2, 4, 6, 8, 10, 12, 14, 16, 18, 20, 22, 24, 26, 28, 30, 32","1, 2"
39,p3dn.24xlarge,96,48,2,"4, 6, 8, 10, 12, 14, 16, 18, 20, 22, 24, 26, 28, 30, 32, 34, 36, 38, 40, 42, 44, 46, 48","1, 2"
40,p4d.24xlarge,96,48,2,"2, 4, 6, 8, 10, 12, 14, 16, 18, 20, 22, 24, 26, 28, 30, 32, 34, 36, 38, 40, 42, 44, 46, 48","1, 2"
41,p4de.24xlarge,96,48,2,"2, 4, 6, 8, 10, 12, 14, 16, 18, 20, 22, 24, 26, 28, 30, 32, 34, 36, 38, 40, 42, 44, 46, 48","1, 2"
42,trn1.2xlarge,8,4,2,"2, 4","1, 2"
43,trn1.32xlarge,128,64,2,"2, 4, 6, 8, 10, 12, 14, 16, 18, 20, 22, 24, 26, 28, 30, 32, 34, 36, 38, 40, 42, 44, 46, 48, 50, 52, 54, 56, 58, 60, 62, 64","1, 2"
44,trn1n.32xlarge,128,64,2,"2, 4, 6, 8, 10, 12, 14, 16, 18, 20, 22, 24, 26, 28, 30, 32, 34, 36, 38, 40, 42, 44, 46, 48, 50, 52, 54, 56, 58, 60, 62, 64","1, 2"
45,vt1.3xlarge,12,6,2,6,"1, 2"
46,vt1.6xlarge,24,12,2,"6, 12","1, 2"
47,vt1.24xlarge,96,48,2,"6, 12, 48","1, 2"
